<?xml version="1.0" encoding="utf-8"?>
<!-- Generator: Adobe Illustrator 19.0.0, SVG Export Plug-In . SVG Version: 6.00 Build 0)  -->
<svg version="1.1" id="Layer_1" xmlns="http://www.w3.org/2000/svg" xmlns:xlink="http://www.w3.org/1999/xlink" x="0px" y="0px"
	 viewBox="-405 245.5 392 279" style="enable-background:new -405 245.5 392 279;" xml:space="preserve" fill="#00bfa5">
<path d="M-117.7,524.5h-153.8c-72.4,0-133.5-63.9-133.5-139.5c0-75.6,61.1-139.5,133.5-139.5c44.5,0,85,21.6,110,58.1
	c14-6.7,28.8-10,43.8-10C-61,293.5-13,344.3-13,404.1C-13,459.9-58.7,524.5-117.7,524.5z M-271.5,262.6
	c-63.1,0-116.4,56.1-116.4,122.5c0,66.4,53.3,122.5,116.4,122.5h153.8c49.4,0,87.6-55.5,87.6-103.3c0-49.8-41-93.5-87.6-93.5
	c-14.6,0-29,3.9-42.6,11.6l-7.2,4.1l-4.3-7.1C-193.1,283.7-230.4,262.6-271.5,262.6z"/>
</svg>
