<?xml version="1.0" encoding="utf-8"?>
<!-- Generator: Adobe Illustrator 19.0.0, SVG Export Plug-In . SVG Version: 6.00 Build 0)  -->
<svg version="1.1" id="Layer_1" xmlns="http://www.w3.org/2000/svg" xmlns:xlink="http://www.w3.org/1999/xlink" x="0px" y="0px"
	 viewBox="-372 222.9 326 324.2" style="enable-background:new -372 222.9 326 324.2;" xml:space="preserve" fill="#00bfa5">
<path d="M-354.3,547.1c-3.9,0-7.1-3.2-7.1-7.1v-14.2c0-3.9,3.2-7.1,7.1-7.1c3.9,0,7.1,3.2,7.1,7.1V540
	C-347.2,543.9-350.4,547.1-354.3,547.1z"/>
<path d="M-133.1,454.9H-261c-60.2,0-111-53.1-111-116c0-62.9,50.8-116,111-116c37,0,70.7,18,91.5,48.3c11.7-5.6,23.9-8.4,36.4-8.4
	c47.2,0,87,42.2,87,92C-46,401.2-84,454.9-133.1,454.9z M-261,237.1c-52.5,0-96.8,46.6-96.8,101.9c0,55.2,44.3,101.8,96.8,101.8
	h127.9c41,0,72.9-46.1,72.9-85.9c0-41.5-34-77.8-72.9-77.8c-12.2,0-24.1,3.2-35.4,9.6l-6,3.4l-3.5-5.9
	C-195.7,254.7-226.7,237.1-261,237.1z"/>
<path d="M-326,504.6c-3.9,0-7.1-3.2-7.1-7.1v-14.2c0-3.9,3.2-7.1,7.1-7.1c3.9,0,7.1,3.2,7.1,7.1v14.2
	C-318.9,501.4-322.1,504.6-326,504.6z"/>
<path d="M-297.6,462c-3.9,0-7.1-3.2-7.1-7.1v-14.2c0-3.9,3.2-7.1,7.1-7.1c3.9,0,7.1,3.2,7.1,7.1v14.2
	C-290.5,458.8-293.7,462-297.6,462z"/>
<path d="M-297.6,547.1c-3.9,0-7.1-3.2-7.1-7.1v-14.2c0-3.9,3.2-7.1,7.1-7.1c3.9,0,7.1,3.2,7.1,7.1V540
	C-290.5,543.9-293.7,547.1-297.6,547.1z"/>
<path d="M-269.3,504.6c-3.9,0-7.1-3.2-7.1-7.1v-14.2c0-3.9,3.2-7.1,7.1-7.1s7.1,3.2,7.1,7.1v14.2
	C-262.2,501.4-265.3,504.6-269.3,504.6z"/>
<path d="M-240.9,547.1c-3.9,0-7.1-3.2-7.1-7.1v-14.2c0-3.9,3.2-7.1,7.1-7.1s7.1,3.2,7.1,7.1V540C-233.8,543.9-237,547.1-240.9,547.1
	z"/>
<path d="M-212.5,504.6c-3.9,0-7.1-3.2-7.1-7.1v-14.2c0-3.9,3.2-7.1,7.1-7.1s7.1,3.2,7.1,7.1v14.2
	C-205.5,501.4-208.6,504.6-212.5,504.6z"/>
<path d="M-184.2,547.1c-3.9,0-7.1-3.2-7.1-7.1v-14.2c0-3.9,3.2-7.1,7.1-7.1c3.9,0,7.1,3.2,7.1,7.1V540
	C-177.1,543.9-180.3,547.1-184.2,547.1z"/>
<path d="M-155.8,504.6c-3.9,0-7.1-3.2-7.1-7.1v-14.2c0-3.9,3.2-7.1,7.1-7.1c3.9,0,7.1,3.2,7.1,7.1v14.2
	C-148.7,501.4-151.9,504.6-155.8,504.6z"/>
<path d="M-127.5,547.1c-3.9,0-7.1-3.2-7.1-7.1v-14.2c0-3.9,3.2-7.1,7.1-7.1c3.9,0,7.1,3.2,7.1,7.1V540
	C-120.4,543.9-123.6,547.1-127.5,547.1z"/>
<path d="M-127.5,462c-1.8,0-3.7-0.7-5.1-2.1c-1.3-1.4-2-3.1-2-5c0-1.8,0.7-3.5,2-5c2.8-2.8,7.4-2.7,10.1,0c1.4,1.3,2.1,3.2,2.1,5
	c0,1.9-0.7,3.7-2.1,5C-123.8,461.3-125.6,462-127.5,462z"/>
<path d="M-99.1,504.6c-3.9,0-7.1-3.2-7.1-7.1v-14.2c0-3.9,3.2-7.1,7.1-7.1c3.9,0,7.1,3.2,7.1,7.1v14.2
	C-92,501.4-95.2,504.6-99.1,504.6z"/>
<path d="M-70.8,547.1c-3.9,0-7.1-3.2-7.1-7.1v-14.2c0-3.9,3.2-7.1,7.1-7.1c3.9,0,7.1,3.2,7.1,7.1V540
	C-63.7,543.9-66.8,547.1-70.8,547.1z"/>
</svg>
